{
  "cwd": "C:\\Users\\brent\\OneDrive\\Bureaublad\\SmartApps-Shadowmaker-BrentNotebaertYoniVindelinckx-2122",
  "type": [
    "pwa"
  ],
  "name": "Shadowmaker",
  "framework": "react",
  "template": "tabs",
  "bundler": "vite",
  "cssPreProcessor": false,
  "theming": {
    "customColor": true,
    "color": "#d9d856",
    "darkTheme": false,
    "iconFonts": true,
    "fillBars": true
  },
  "customBuild": false
}